---
source: spade-tests/src/hir_lowering.rs
---
struct Test{a: bool, b: bool}

fn main() -> Test {
    Test$(a: true)
}


error: Missing argument: b
  ┌─ testinput:4:10
  │
4 │     Test$(a: true)
  │          ^^^^^^^^^ Missing argument: b


