---
source: spade-tests/src/ast_lowering.rs
---
#[uwu]
pipeline(1) a(clk: clock) -> bool {reg; true}


error: Unrecognised attribute
  ┌─ testinput:1:1
  │
1 │ #[uwu]
  │ ^^^^^^ Unrecognised attribute


