---
source: spade-tests/src/ports_integration.rs
---
entity x(clk: clock, a: &mut bool) -> bool {
    reg(clk) _ = a;
    true
}


error: Ports cannot be put in a register
  ┌─ testinput:2:18
  │
2 │     reg(clk) _ = a;
  │                  ^ This is a port
  │
  = &mut bool is a port


